inc 20241209T050318Z - 20241209T050700Z # "FAL-175 complete checklist items"
inc 20241209T050700Z - 20241209T052803Z # "FAL-3749 update ticket status and due date"
inc 20241209T055548Z - 20241209T061456Z # "FAL-3871 read and check related epics"
inc 20241209T061458Z - 20241209T074507Z # "FAL-3986 work"
inc 20241209T092456Z - 20241209T110432Z # "FAL-3986 work"
inc 20241209T135938Z - 20241209T153745Z # "FAL-3986 work"
inc 20241209T164228Z - 20241209T164243Z # "FAL-3986 work"
inc 20241210T035014Z - 20241210T044523Z # "FAL-3871 go through designs, create tasks and update epic description"
inc 20241210T044524Z - 20241210T045201Z # "FAL-3749 Check ticket status"
inc 20241210T045202Z - 20241210T051046Z # "FAL-3749 respond on issue comments in ac testing"
inc 20241210T051048Z - 20241210T060532Z # "FAL-3986 work"
inc 20241210T063402Z - 20241210T064842Z # "FAL-3986 work"
inc 20241210T064842Z - 20241210T065749Z # "FAL-3983 review"
inc 20241210T095609Z - 20241210T103534Z # "FAL-3983 review"
inc 20241210T103534Z - 20241210T105418Z # "BB-8998 review"
inc 20241210T140847Z - 20241210T141810Z # "BB-8950 update PR"
inc 20241210T141810Z - 20241210T143833Z # "FAL-175 post end of sprint update and catchup of others updates"
inc 20241210T143833Z - 20241210T151539Z # "FAL-3875 read"
inc 20241211T041144Z - 20241211T043103Z # "FAL-3983 review"
inc 20241211T043103Z - 20241211T044920Z # "FAL-3871 create tasks"
inc 20241211T050352Z - 20241211T053932Z # "FAL-3835 maintainer work"
inc 20241211T053932Z - 20241211T061621Z # "FAL-3875 investigate"
inc 20241211T094654Z - 20241211T103844Z # "FAL-3875 investigate"
inc 20241211T122542Z - 20241211T130819Z # "FAL-3875 investigate"
inc 20241211T150837Z - 20241211T154121Z # "FAL-3875 investigate"
inc 20241211T162740Z - 20241211T162854Z # "FAL-3875 investigate"
inc 20241212T041736Z - 20241212T045505Z # "FAL-3986 work"
inc 20241212T045852Z - 20241212T072014Z # "FAL-3986 work"
inc 20241212T092149Z - 20241212T104108Z # "FAL-3986 work"
inc 20241212T140013Z - 20241212T140612Z # "FAL-3576 social chat"
inc 20241212T143113Z - 20241212T143851Z # "FAL-3749 post epic update"
inc 20241212T143851Z - 20241212T144119Z # "FAL-3871 post epic update"
inc 20241212T150218Z - 20241212T154615Z # "FAL-3875 investigate"
inc 20241213T043653Z - 20241213T061659Z # "FAL-3986 work"
inc 20241213T062220Z - 20241213T063343Z # "FAL-3990 read"
inc 20241213T063344Z - 20241213T074015Z # "FAL-3875 test indexing and filtering"
inc 20241213T094057Z - 20241213T094625Z # "FAL-3875 test indexing and filtering"
inc 20241213T100932Z - 20241213T111440Z # "FAL-3875 test indexing and filtering"
inc 20241216T050545Z - 20241216T051035Z # "FAL-3986 check and update ticket"
inc 20241216T051036Z - 20241216T051335Z # "FAL-3990 check and respond"
inc 20241216T051336Z - 20241216T055931Z # "FAL-3875 test indexing and filtering"
inc 20241216T062304Z - 20241216T065204Z # "FAL-3875 test indexing and filtering"
inc 20241216T065204Z - 20241216T070138Z # "FAL-3990 investigate"
inc 20241216T103859Z - 20241216T115101Z # "FAL-3990 investigate"
inc 20241216T144144Z - 20241216T153811Z # "FAL-3990 investigate"
inc 20241216T160527Z - 20241216T170648Z # "STAR-3870 participate in meeting"
inc 20241217T045638Z - 20241217T060604Z # "FAL-3875 read and respond to comments"
inc 20241217T060606Z - 20241217T063826Z # "FAL-3981 review"
inc 20241217T101835Z - 20241217T102439Z # "FAL-3981 review"
inc 20241217T102439Z - 20241217T103616Z # "FAL-175 post mid sprint update"
inc 20241217T103616Z - 20241217T113737Z # "FAL-3990 investigate"
inc 20241217T123506Z - 20241217T135150Z # "FAL-3990 investigate"
inc 20241217T142652Z - 20241217T145623Z # "FAL-3990 investigate"
inc 20241217T153153Z - 20241217T153725Z # "FAL-3990 investigate"
inc 20241217T162115Z - 20241217T162138Z # "FAL-3990 investigate"
inc 20241218T042434Z - 20241218T043353Z # "FAL-3981 review"
inc 20241218T043353Z - 20241218T073606Z # "FAL-3875 respond to comments and update discovery"
inc 20241218T103540Z - 20241218T104222Z # "FAL-3875 respond to comments and update discovery"
inc 20241218T104222Z - 20241218T111517Z # "FAL-3990 work"
inc 20241218T111634Z - 20241218T111638Z # "FAL-3990 work"
inc 20241218T121200Z - 20241218T123016Z # "FAL-3990 work"
inc 20241218T151124Z - 20241218T153502Z # "FAL-3990 work"
inc 20241218T170529Z - 20241218T170603Z # "FAL-3990 work"
inc 20241219T045356Z - 20241219T064455Z # "FAL-3875 respond to comments and update discovery"
inc 20241219T092245Z - 20241219T111151Z # "FAL-3875 respond to comments and update discovery"
inc 20241219T141100Z - 20241219T145618Z # "FAL-3875 respond to comments and update discovery"
inc 20241219T145631Z - 20241219T145842Z # "FAL-3875 respond to comments and update discovery"
inc 20241220T062900Z - 20241220T065849Z # "FAL-3981 review"
inc 20241220T065850Z - 20241220T071928Z # "FAL-3875 review comments and share document"
inc 20241220T071930Z - 20241220T073425Z # "FAL-3986 check sandbox"
inc 20241220T093714Z - 20241220T112815Z # "FAL-3990 work"
inc 20241220T122658Z - 20241220T130900Z # "FAL-3990 work"
inc 20241223T052708Z - 20241223T073204Z # "FAL-3984 review"
inc 20241223T115959Z - 20241223T120117Z # "FAL-3984 review"
inc 20241223T120117Z - 20241223T120754Z # "BB-7487 read and respond"
inc 20241223T142800Z - 20241223T143649Z # "FAL-3875 respond to comments and update discovery"
inc 20241223T143649Z - 20241223T144158Z # "FAL-3986 check sandbox and update ticket"
inc 20241223T144159Z - 20241223T150432Z # "FAL-3875 respond to comments and update discovery"
inc 20241223T150441Z - 20241223T153540Z # "FAL-3990 work"
inc 20241224T043811Z - 20241224T045825Z # "FAL-3943 investigate and respond"
inc 20241225T051012Z - 20241225T051716Z # "FAL-175 post mid sprint update and catch up"
inc 20241225T051716Z - 20241225T054622Z # "BB-9421 go through trial project and github profile"
inc 20241225T054702Z - 20241225T060659Z # "FAL-175 post mid sprint update and catch up"
inc 20241225T060659Z - 20241225T061834Z # "FAL-3835 maintainer work"
inc 20241225T110438Z - 20241225T111029Z # "FAL-3835 maintainer work"
inc 20241225T113149Z - 20241225T113552Z # "SE-6362 review"
inc 20241225T115331Z - 20241225T122415Z # "SE-6362 review"
inc 20241225T122415Z - 20241225T131219Z # "FAL-4016 investigate"
inc 20241225T133724Z - 20241225T135059Z # "FAL-3749 post epic update"
inc 20241225T135059Z - 20241225T135333Z # "FAL-3749 post epic update"
inc 20241226T052813Z - 20241226T053420Z # "FAL-175 catchup on updates"
inc 20241226T055105Z - 20241226T065548Z # "FAL-4016 investigate"
inc 20241226T141605Z - 20241226T153559Z # "FAL-4016 work"
inc 20241227T045800Z - 20241227T055754Z # "FAL-4016 work"
inc 20241227T064039Z - 20241227T070623Z # "FAL-4016 work"
inc 20241227T071308Z - 20241227T073752Z # "FAL-4016 work"
inc 20241227T095555Z - 20241227T122134Z # "FAL-4016 work"
inc 20241227T161307Z - 20241227T161543Z # "FAL-4016 work"
inc 20241230T042801Z - 20241230T044416Z # "FAL-4016 work"
inc 20241230T044416Z - 20241230T044745Z # "FAL-3984 review"
inc 20241230T044745Z - 20241230T060944Z # "FAL-4016 work"
inc 20241230T091719Z - 20241230T105255Z # "FAL-4016 work"
inc 20241230T150829Z - 20241230T152804Z # "FAL-4016 work"
