{
  "BB-2276 check sprintcraft issue":{"count":2},
  "BB-254  catch up on sprint updates":{"count":1},
  "BB-254  post mid sprint update":{"count":15},
  "BB-254  retrospective meeting, postponed":{"count":1},
  "BB-254  social chat":{"count":2},
  "BB-254 catch on emails and complete checklist":{"count":1},
  "BB-254 catch up on emails (add 10 mins)":{"count":1},
  "BB-254 catch up on sprint updates":{"count":8},
  "BB-254 finding tasks by going through listaflow checklist":{"count":3},
  "BB-254 issues with mic":{"count":1},
  "BB-254 listaflow checklist":{"count":9},
  "BB-254 listaflow checklist ann FF rotation update":{"count":1},
  "BB-254 post end of sprint update":{"count":5},
  "BB-254 post end of sprint update and catchup on others updates":{"count":7},
  "BB-254 post end of sprint update and complete listaflow checklist":{"count":10},
  "BB-254 post mid sprint update and investigate migration script failure: BB-2548":{"count":1},
  "BB-254 post mind sprint update and catch up on others update":{"count":2},
  "BB-254 read about zoom jwt app deprecation and respond":{"count":1},
  "BB-254 send email about redis event bus project bus completion":{"count":1},
  "BB-254 sprint retrospective meeting":{"count":12},
  "BB-254 trying to login to listaflow":{"count":1},
  "BB-254 update pager rotation and work on sprint checklist":{"count":1},
  "BB-254 wait for participants to join sprint retro meeting":{"count":1},
  "BB-2548 investigate zoom api and respond":{"count":1},
  "BB-2548 post epic update and check description":{"count":1},
  "BB-282 read and respond":{"count":1},
  "BB-283 read post":{"count":1},
  "BB-6848 check event bus config related PR for skill tagging":{"count":1},
  "BB-6848 remind for reviewing":{"count":1},
  "BB-6848 respond":{"count":1},
  "BB-6848 respond to comments in event related config PR in skill tagging":{"count":1},
  "BB-7126 add custom exceptions for improving logging":{"count":1},
  "BB-7126 meeting with client":{"count":1},
  "BB-7126 post epic update":{"count":3},
  "BB-7165 investigate":{"count":3},
  "BB-7376 estimate":{"count":1},
  "BB-7391 add staging site":{"count":5},
  "BB-7391 check":{"count":2},
  "BB-7391 update upstream ticket and respond":{"count":1},
  "BB-7407 check":{"count":1},
  "BB-7407 check and ping reviewer":{"count":1},
  "BB-7407 check and respond":{"count":4},
  "BB-7407 check backport":{"count":2},
  "BB-7407 check for email":{"count":2},
  "BB-7407 create document":{"count":1},
  "BB-7407 create hmx account":{"count":1},
  "BB-7407 fill spillover reason":{"count":1},
  "BB-7407 fix devstack setup":{"count":1},
  "BB-7407 investigate missing email":{"count":1},
  "BB-7407 reduce 30 mins or so":{"count":1},
  "BB-7407 setup course dates in hmx for testing":{"count":1},
  "BB-7407 update":{"count":1},
  "BB-7407 update PR based on review comments":{"count":25},
  "BB-7407 update upstream ticket":{"count":1},
  "BB-7407 work on feature":{"count":28},
  "BB-7427 check and respond (move 5 mins to BB-254)":{"count":1},
  "BB-7427 post update":{"count":1},
  "BB-7487 read and respond":{"count":1},
  "BB-7518 update PR and respond":{"count":1},
  "BB-7518 update ticket":{"count":1},
  "BB-7543 fix tests":{"count":4},
  "BB-7543 read and respond":{"count":1},
  "BB-7543 read response in PRs":{"count":1},
  "BB-7543 update PR":{"count":8},
  "BB-7555 check and update ticket":{"count":1},
  "BB-7568 review":{"count":3},
  "BB-7589":{"count":1},
  "BB-7589 go through changes and latest comment":{"count":1},
  "BB-7589 update PR":{"count":5},
  "BB-7589 work on changes requested by upstream":{"count":4},
  "BB-7599 check and respond":{"count":3},
  "BB-7599 create release branch and new PR":{"count":1},
  "BB-7599 investigate build issues":{"count":9},
  "BB-7599 npm release for our fork":{"count":6},
  "BB-7599 post conclusion and ask for next steps":{"count":1},
  "BB-7599 read ADR":{"count":2},
  "BB-7599 update PR, merge and update ticket":{"count":1},
  "BB-7599 work on plugin for deploying custom footer":{"count":5},
  "BB-7609 create issue":{"count":1},
  "BB-7609 ping reviewers":{"count":1},
  "BB-7609 respond":{"count":1},
  "BB-7609 update PR":{"count":1},
  "BB-7609 update PR and respond":{"count":1},
  "BB-7609 update PR as per product review":{"count":2},
  "BB-7643 address review comments for openedx-events PR":{"count":1},
  "BB-7643 attend maintainer group meeting":{"count":3},
  "BB-7643 complete CC survey":{"count":1},
  "BB-7643 complete checklist":{"count":1},
  "BB-7643 complete survey on openedx-events":{"count":1},
  "BB-7643 create issue for maintainership access":{"count":1},
  "BB-7643 event bus redis related communication methods discussion":{"count":1},
  "BB-7643 go through issuse and PRs in frontend-app-library-authoring as a maintainer":{"count":12},
  "BB-7643 investigate recommenerXblock issue":{"count":1},
  "BB-7643 mathjax upgrade":{"count":4},
  "BB-7643 read issue about CC repo automation":{"count":1},
  "BB-7643 read issues in library-authoring":{"count":1},
  "BB-7643 read maintainer meeting notes":{"count":1},
  "BB-7643 read node upgrade notes":{"count":1},
  "BB-7643 recommenderxblock issue":{"count":3},
  "BB-7643 recommenderxblock maintenance":{"count":2},
  "BB-7643 respond to automation request":{"count":1},
  "BB-7643 respond to issue about linking cc and repos":{"count":1},
  "BB-7643 respond to issues in recommender-xblock":{"count":1},
  "BB-7643 revi":{"count":1},
  "BB-7643 review PR as CC":{"count":13},
  "BB-7643 review PR as CC (log 1h)":{"count":1},
  "BB-7643 review event bus ADR":{"count":1},
  "BB-7643 review event bus PR":{"count":3},
  "BB-7643 review event bus redis PR":{"count":1},
  "BB-7643 test issue from library-authoring as maintainer and close it":{"count":1},
  "BB-7643 updat volunteering thread":{"count":1},
  "BB-7643 update CC PR":{"count":2},
  "BB-7643 update catalog info for library repo and go through maintainership docs":{"count":1},
  "BB-7643 vote for new CC":{"count":1},
  "BB-7643 wait for maintainer meeting session":{"count":1},
  "BB-7643 work on application state PR for event bus":{"count":7},
  "BB-7666 add 15 mins for fixing ci":{"count":1},
  "BB-7666 investigate pydantic and alternatives and update PR":{"count":1},
  "BB-7666 replace handlers in edx-platform":{"count":3},
  "BB-7666 replace handlers in xblock-skill-tagging":{"count":1},
  "BB-7666 respond":{"count":1},
  "BB-7666 update PR and related docs":{"count":3},
  "BB-7666 update xblock-skill PR test instructions and fix ci issue":{"count":2},
  "BB-7677 approve and post on slack informing about merge timing":{"count":9},
  "BB-7694 review":{"count":6},
  "BB-7698 review and respond":{"count":4},
  "BB-7731 check":{"count":1},
  "BB-7731 create backport PR":{"count":1},
  "BB-7731 read":{"count":1},
  "BB-7731 read context":{"count":2},
  "BB-7731 test and post analysis":{"count":1},
  "BB-7731 test dev and update tickets":{"count":1},
  "BB-7731 test dev, delete cache and start deployment":{"count":5},
  "BB-7731 update palm branch and deploy to dev":{"count":1},
  "BB-7731 update ticket":{"count":1},
  "BB-7752 fix development setup issue, test and submit review":{"count":1},
  "BB-7752 review":{"count":7},
  "BB-7752 testing":{"count":1},
  "BB-7755 read discussion and respond":{"count":2},
  "BB-7773 deploy":{"count":3},
  "BB-7773 estimate":{"count":1},
  "BB-7773 read and update":{"count":1},
  "BB-7773 read comment":{"count":2},
  "BB-7773 respond":{"count":1},
  "BB-7773 respond to upstream comment":{"count":1},
  "BB-7773 review":{"count":2},
  "BB-7780 dev review":{"count":1},
  "BB-7787 read and respond":{"count":1},
  "BB-7792 check and respond":{"count":1},
  "BB-7809 dev review":{"count":2},
  "BB-7816 estimate":{"count":1},
  "BB-7825 estimate":{"count":1},
  "BB-7827 read":{"count":1},
  "BB-7827 review":{"count":6},
  "BB-7828 check":{"count":1},
  "BB-7828 check and respon":{"count":1},
  "BB-7828 estimate":{"count":1},
  "BB-7828 investigate issue":{"count":5},
  "BB-7828 ping":{"count":1},
  "BB-7828 read and respond":{"count":1},
  "BB-7828 setup course authoring mfe and reproduce issue":{"count":2},
  "BB-7828 work on feature":{"count":4},
  "BB-7829 create PR for docs":{"count":1},
  "BB-7829 create video and post it":{"count":1},
  "BB-7829 estimate":{"count":1},
  "BB-7829 find config to fix issue":{"count":3},
  "BB-7829 investigate":{"count":2},
  "BB-7829 investigate and ping upstream ticket":{"count":1},
  "BB-7829 ping":{"count":1},
  "BB-7829 read and respond":{"count":2},
  "BB-7829 reproduce issue":{"count":2},
  "BB-7829 reproduce issue (split 8 mins to redis meeting)":{"count":1},
  "BB-7829 update PR":{"count":2},
  "BB-7829 update ticket":{"count":1},
  "BB-7830 estimate":{"count":1},
  "BB-7839 investigate":{"count":6},
  "BB-7839 read and respond":{"count":2},
  "BB-7840 check and respond":{"count":1},
  "BB-7840 ping on upstream ticket":{"count":1},
  "BB-7840 test xblock and post investigation result":{"count":1},
  "BB-7840 update ticket":{"count":2},
  "BB-7843 review":{"count":3},
  "BB-7848 find about certificate issues in grove":{"count":1},
  "BB-7859 estimate":{"count":1},
  "BB-7861 and BB-7862 review":{"count":3},
  "BB-7861 estimate":{"count":1},
  "BB-7862 check and respond":{"count":1},
  "BB-7862 estimate":{"count":1},
  "BB-7863 estimate":{"count":1},
  "BB-7865 check PRs and pind Sameen":{"count":1},
  "BB-7865 create discovery PR":{"count":3},
  "BB-7865 create ticket":{"count":1},
  "BB-7865 fix api filters and discuss with Sameen":{"count":1},
  "BB-7865 investigate":{"count":2},
  "BB-7865 respond":{"count":1},
  "BB-7865 respond to sameen and update ticket":{"count":2},
  "BB-7865 run final tests locally and update PR":{"count":1},
  "BB-7865 update ticket":{"count":1},
  "BB-7865 work on changes":{"count":2},
  "BB-7869 estimate":{"count":1},
  "BB-7870 check pipeline status and update PR":{"count":1},
  "BB-7870 create ticket":{"count":1},
  "BB-7870 implement change and test":{"count":1},
  "BB-7870 investigate":{"count":3},
  "BB-7870 merge and update ticket":{"count":1},
  "BB-7870 update docs":{"count":2},
  "BB-7871 estimate":{"count":1},
  "BB-7872 read and respond":{"count":1},
  "BB-7895 find openedx language support option and respond":{"count":1},
  "BB-7895 read":{"count":1},
  "BB-7895 read and respond":{"count":1},
  "BB-7897 estimate":{"count":1},
  "BB-7902 comment":{"count":2},
  "BB-7902 merge PR":{"count":1},
  "BB-7902 notify in slack CC channel":{"count":1},
  "BB-7902 read and respond":{"count":1},
  "BB-7902 review":{"count":2},
  "BB-7902 update PR and ask CC's for review":{"count":1},
  "BB-7902 update ticket":{"count":1},
  "BB-7927 check":{"count":1},
  "BB-7927 deploy":{"count":2},
  "BB-7927 deploy and test":{"count":2},
  "BB-7927 investigate":{"count":1},
  "BB-7927 respond to review comments and investigate cache issues":{"count":1},
  "BB-7927 respond to upstream comment and merge plugin PR":{"count":1},
  "BB-7927 test changes and respond to upstream comment":{"count":1},
  "BB-7927 update PR":{"count":2},
  "BB-7927 update PR and create upstream PR":{"count":1},
  "BB-7927 update ticket":{"count":1},
  "BB-7927 work on changes":{"count":8},
  "BB-7927 work on grove changes":{"count":3},
  "BB-7935 send trial project review":{"count":1},
  "BB-7939 and BB-7940 update ticket":{"count":1},
  "BB-7939 investigate and post analysis":{"count":1},
  "BB-7940 investigate":{"count":2},
  "BB-7940 respond":{"count":1},
  "BB-7940 update ticket":{"count":1},
  "BB-7940 work on changes":{"count":11},
  "BB-7946 read analysis":{"count":1},
  "BB-7979 estimate":{"count":1},
  "BB-7985 read":{"count":2},
  "BB-7988 going through time logs":{"count":1},
  "BB-7990 meeting":{"count":1},
  "BB-7990 respond to chat":{"count":1},
  "BB-7990 respond to email related to mentoring":{"count":1},
  "BB-7990 schedule meeting":{"count":1},
  "BB-7991 check PR and comment":{"count":1},
  "BB-7992 investigate dropdown issue":{"count":1},
  "BB-7992 read about mathjax v2 to v3 upgrade":{"count":1},
  "BB-7992 read and respond":{"count":2},
  "BB-7992 work on upgrade":{"count":24},
  "BB-8000 review":{"count":1},
  "BB-8009 review":{"count":2},
  "BB-8091 update PR as per review comments":{"count":4},
  "BB-8121 delete stale branches":{"count":2},
  "BB-8121 remind client":{"count":1},
  "BB-8124 async update":{"count":1},
  "BB-8124 check msg and new issue":{"count":2},
  "BB-8124 check new ticket from client":{"count":2},
  "BB-8124 check status":{"count":2},
  "BB-8124 create tickets for next sprint":{"count":5},
  "BB-8124 discuss with client on chat and investigate new task":{"count":1},
  "BB-8124 investigate server error alert":{"count":1},
  "BB-8124 meeting with client":{"count":1},
  "BB-8124 post epic update":{"count":4},
  "BB-8124 post epic update and ping client for project status":{"count":1},
  "BB-8124 post epic update and update related tickets":{"count":2},
  "BB-8124 prepare for meeting":{"count":1},
  "BB-8124 respond to clients chat msgs":{"count":2},
  "BB-8124 share update to client":{"count":1},
  "BB-8140 check PR and update PR":{"count":1},
  "BB-8219 check previous implementation":{"count":1},
  "BB-8219 use drag-n-drop components from lib":{"count":2},
  "BB-8271 social chat":{"count":9},
  "BB-8271 wait for people in social chat meeting":{"count":1},
  "BB-8277 review":{"count":1},
  "BB-8279 respond":{"count":1},
  "BB-8279 start working on unit implementation":{"count":3},
  "BB-8285 add enterprise-access to tutor":{"count":1},
  "BB-8285 add enterprise-subsidy":{"count":3},
  "BB-8285 add license-manager to tutor":{"count":4},
  "BB-8285 check and ping reviewer":{"count":1},
  "BB-8285 check and respond":{"count":1},
  "BB-8285 check and update spillover spreadsheet":{"count":1},
  "BB-8285 check other plugin":{"count":1},
  "BB-8285 fix issues in production mode":{"count":1},
  "BB-8285 fix issues in tutor-plugin":{"count":2},
  "BB-8285 investigate high memory usage in production":{"count":3},
  "BB-8285 investigate tutor enterprise setup":{"count":18},
  "BB-8285 read":{"count":1},
  "BB-8285 read PR comments and respond":{"count":1},
  "BB-8285 read and start setting up devstack":{"count":5},
  "BB-8285 test learner portal":{"count":1},
  "BB-8285 update PR and investigate license-manager":{"count":1},
  "BB-8285 update PR and respond":{"count":9},
  "BB-8285 update lms init task":{"count":3},
  "BB-8287 review":{"count":1},
  "BB-8290 read and vote":{"count":1},
  "BB-8424 work on feature":{"count":1},
  "BB-8431 add tests":{"count":2},
  "BB-8456 respond and review PR":{"count":1},
  "BB-8456 review":{"count":1},
  "BB-8481 review":{"count":1},
  "BB-8485 update PR and ping upstream review":{"count":1},
  "BB-8485 update backend PR":{"count":1},
  "BB-8500 update PR based on review feedback":{"count":3},
  "BB-8500 work on paste componentn":{"count":8},
  "BB-8503 read":{"count":1},
  "BB-8503 review":{"count":1},
  "BB-8514 check slack and respond":{"count":1},
  "BB-8514 read":{"count":2},
  "BB-8535 book flight (20 mins)":{"count":2},
  "BB-8535 prepare company letter":{"count":2},
  "BB-8535 research docs":{"count":2},
  "BB-8535 research flights":{"count":1},
  "BB-8535 update spreadsheets":{"count":1},
  "BB-8559 read":{"count":1},
  "BB-8559 udpate date format":{"count":2},
  "BB-8559 update styles":{"count":2},
  "BB-8560 add proctoring settings to advanced tab":{"count":9},
  "BB-8560 add tests":{"count":5},
  "BB-8560 update PR based on review comments":{"count":1},
  "BB-8560 use formik in configuration modal":{"count":5},
  "BB-8560 work on first 2 items":{"count":2},
  "BB-8560 work on page alerts":{"count":8},
  "BB-8621 go through final document":{"count":1},
  "BB-8621 read":{"count":1},
  "BB-8621 review":{"count":2},
  "BB-8624 review":{"count":3},
  "BB-8632 merge PR":{"count":1},
  "BB-8633 check":{"count":2},
  "BB-8633 review":{"count":1},
  "BB-8634 check and respond to upstream comment":{"count":1},
  "BB-8634 ping reviewer":{"count":1},
  "BB-8634 update PR":{"count":2},
  "BB-8634 update PR as per reviewer comments":{"count":2},
  "BB-8635 check and update ticket":{"count":1},
  "BB-8635 create master PR":{"count":2},
  "BB-8635 experiment with scss variables":{"count":7},
  "BB-8635 fix discussions and learning header theme":{"count":1},
  "BB-8635 setup tutor and theme locally":{"count":3},
  "BB-8635 update PR and merge":{"count":1},
  "BB-8644 check and update tickets":{"count":1},
  "BB-8644 update PR":{"count":1},
  "BB-8665 review":{"count":2},
  "BB-8665 setup listaflow, investigate npm sass error":{"count":4},
  "BB-8672 review":{"count":2},
  "BB-8676 check and respond":{"count":1},
  "BB-8676 fill actual cost in spreadsheet":{"count":1},
  "BB-8676 find new repositories":{"count":1},
  "BB-8676 read":{"count":3},
  "BB-8676 volunteer for maintainership and find PRs for CC review":{"count":2},
  "BB-8723 read and respond":{"count":5},
  "BB-8723 review":{"count":3},
  "BB-8725 review":{"count":1},
  "BB-8737 investigate":{"count":1},
  "BB-8737 update icon":{"count":1},
  "BB-8740 read and respond":{"count":1},
  "BB-8744 read":{"count":1},
  "BB-8744 review":{"count":1},
  "BB-8744 review estimates and respond":{"count":2},
  "BB-8746 estimate":{"count":1},
  "BB-8747 estimate":{"count":1},
  "BB-8749 estimate":{"count":1},
  "BB-8750 review":{"count":5},
  "BB-8751 estimate":{"count":1},
  "BB-8753 estimate":{"count":1},
  "BB-8754 estimate":{"count":1},
  "BB-8756 estimate":{"count":1},
  "BB-8757 respond":{"count":1},
  "BB-8757 review":{"count":1},
  "BB-8759 estimate":{"count":1},
  "BB-8760 estimate":{"count":1},
  "BB-8763 estimate":{"count":1},
  "BB-8767 investigate and respond on slack":{"count":2},
  "BB-8772 add test instructions":{"count":1},
  "BB-8772 create theme change PR":{"count":1},
  "BB-8772 investigate":{"count":2},
  "BB-8772 publish package and test tutor plugin locally":{"count":2},
  "BB-8772 read and respond":{"count":3},
  "BB-8772 send approval email":{"count":1},
  "BB-8772 start working":{"count":1},
  "BB-8772 test production":{"count":1},
  "BB-8772 update code drift board and epic description":{"count":1},
  "BB-8772 work on feature":{"count":5},
  "BB-8780 (add 30 mins)":{"count":1},
  "BB-8780 add remaining tests":{"count":1},
  "BB-8780 add tests for mailchimp and make enterprise-tutor plugin nightly compatible":{"count":5},
  "BB-8780 create tutor plugin PR":{"count":1},
  "BB-8780 fix issues with mandrill and test assignment email":{"count":1},
  "BB-8780 investigate":{"count":1},
  "BB-8780 investigate upstream changes":{"count":2},
  "BB-8780 read and respond":{"count":2},
  "BB-8780 reolve conflicts and tests after rebase. Start working on dev setup to test emails":{"count":1},
  "BB-8780 start working on modularizing email code":{"count":2},
  "BB-8780 update mandrill settings":{"count":1},
  "BB-8780 update ticket":{"count":2},
  "BB-8780 work on dev setup for testing":{"count":2},
  "BB-8780 work on feature":{"count":18},
  "BB-8780 work on resolving conflicts":{"count":2},
  "BB-8791 fix styling":{"count":2},
  "BB-8791 investigate":{"count":1},
  "BB-8791 read and respond":{"count":4},
  "BB-8791 work on components":{"count":14},
  "BB-8793 read and respond":{"count":1},
  "BB-8794 check":{"count":1},
  "BB-8794 estimate":{"count":1},
  "BB-8794 review":{"count":3},
  "BB-8806 estimate":{"count":1},
  "BB-8824 check":{"count":2},
  "BB-8824 check and rebase PR":{"count":1},
  "BB-8824 check and respond":{"count":6},
  "BB-8824 complete change and add tests":{"count":1},
  "BB-8824 create and test palm PR":{"count":2},
  "BB-8824 estimate":{"count":1},
  "BB-8824 make required changes and fight tutor master devstack":{"count":2},
  "BB-8824 redwood backport PR":{"count":1},
  "BB-8824 update PR based on feedback":{"count":8},
  "BB-8824 update documentation PR":{"count":1},
  "BB-8824 update palm PR":{"count":1},
  "BB-8824 update review proposal":{"count":2},
  "BB-8825 go through PR and respond":{"count":1},
  "BB-8825 review":{"count":1},
  "BB-8826 estimate":{"count":1},
  "BB-8827 estimate":{"count":1},
  "BB-8828 estimate":{"count":1},
  "BB-8829 estimate":{"count":1},
  "BB-8829 review":{"count":2},
  "BB-8831 estimate":{"count":1},
  "BB-8831 fix coverage":{"count":2},
  "BB-8831 investigate":{"count":5},
  "BB-8831 read and respond":{"count":1},
  "BB-8831 update PR":{"count":1},
  "BB-8831 update ticket":{"count":1},
  "BB-8831 work on change":{"count":6},
  "BB-8832 estimate":{"count":1},
  "BB-8832 investigate":{"count":2},
  "BB-8832 read and respond":{"count":1},
  "BB-8832 update PR":{"count":1},
  "BB-8832 work on change":{"count":2},
  "BB-8833 estimate":{"count":1},
  "BB-8833 work on change":{"count":2},
  "BB-8847 check":{"count":1},
  "BB-8847 check new issue":{"count":1},
  "BB-8847 create ticket and start investigating":{"count":1},
  "BB-8847 fix modal dialogs":{"count":1},
  "BB-8847 update PR":{"count":1},
  "BB-8847 work on fix":{"count":9},
  "BB-8864 reviw":{"count":1},
  "BB-8865 check and respond":{"count":2},
  "BB-8865 create script to get admin users":{"count":1},
  "BB-8865 get list of courses and respond":{"count":1},
  "BB-8865 investigate":{"count":3},
  "BB-8865 prepare script to clone course and fight api auth mechanism":{"count":2},
  "BB-8865 setup tutor to test clone course api":{"count":1},
  "BB-8865 start cloning in batches":{"count":3},
  "BB-8865 think about options":{"count":2},
  "BB-8865 update staff and get team details (add 20 mins)":{"count":3},
  "BB-8865 update ticket":{"count":1},
  "BB-8865 work on feature and setup tutor devstack for plugin dev":{"count":2},
  "BB-8865 work on script":{"count":7},
  "BB-8876 read proposal on short answer xblock and post it in relevant ticket":{"count":1},
  "BB-8876 respond":{"count":1},
  "BB-8882 estimate":{"count":1},
  "BB-8882 investigate block completion":{"count":3},
  "BB-8882 investigate scores and feedback":{"count":5},
  "BB-8882 jot down notes":{"count":7},
  "BB-8882 read and start investigating":{"count":5},
  "BB-8882 respond to feedback":{"count":5},
  "BB-8882 update doc and create implemenation task":{"count":1},
  "BB-8882 update ticket and respond":{"count":1},
  "BB-8883 check":{"count":1},
  "BB-8883 comment":{"count":1},
  "BB-8883 review":{"count":2},
  "BB-8885 estimate":{"count":1},
  "BB-8885 review":{"count":2},
  "BB-8886 estimate":{"count":1},
  "BB-8887 estimate":{"count":1},
  "BB-8888 estimate":{"count":1},
  "BB-8889 estimate":{"count":1},
  "BB-8890 estimate":{"count":1},
  "BB-8892 estimate":{"count":1},
  "BB-8893 check and update":{"count":1},
  "BB-8893 estimate":{"count":1},
  "BB-8893 read and respond":{"count":2},
  "BB-8893 read email and comment":{"count":1},
  "BB-8893 review":{"count":4},
  "BB-8906 add notice and create PR":{"count":1},
  "BB-8906 estimate":{"count":1},
  "BB-8906 fix workflow actions":{"count":2},
  "BB-8906 test xblock":{"count":1},
  "BB-8906 update repository and ticket":{"count":1},
  "BB-8907 estimate":{"count":1},
  "BB-8908 estimate":{"count":1},
  "BB-8910 check quince sandbox":{"count":6},
  "BB-8910 estimate":{"count":1},
  "BB-8910 read":{"count":3},
  "BB-8910 setup android studio":{"count":3},
  "BB-8910 setup app and start testing":{"count":4},
  "BB-8910 update discovery doc":{"count":2},
  "BB-8910 update upstream ticket":{"count":1},
  "BB-8911 estimate":{"count":1},
  "BB-8911 review and respond":{"count":1},
  "BB-8912 estimate":{"count":1},
  "BB-8913 estimate":{"count":1},
  "BB-8917 estimate":{"count":1},
  "BB-8919 review":{"count":12},
  "BB-8923 estimate":{"count":1},
  "BB-8929 estimate":{"count":1},
  "BB-8930 estimate":{"count":1},
  "BB-8931 estimate":{"count":1},
  "BB-8932 check":{"count":2},
  "BB-8932 estimate":{"count":1},
  "BB-8932 merge PR and update ticket":{"count":1},
  "BB-8932 setup redwood and edx simple theme locally":{"count":2},
  "BB-8932 test sandbox":{"count":2},
  "BB-8932 work on fix":{"count":4},
  "BB-8933 estimate":{"count":1},
  "BB-8934 check and respond":{"count":1},
  "BB-8934 estimate":{"count":1},
  "BB-8935 estimate":{"count":1},
  "BB-8939 estimate":{"count":1},
  "BB-8942 estimate":{"count":1},
  "BB-8944 fix server error alert":{"count":1},
  "BB-8944 update ticket":{"count":1},
  "BB-8950 create repository and start working":{"count":5},
  "BB-8950 figure out way to hook into problem progress":{"count":2},
  "BB-8950 finalize PR":{"count":1},
  "BB-8950 finalize edx-platform and learning mfe PR and add back btn to test score slide":{"count":1},
  "BB-8950 find examples of xblocks to start new repository":{"count":2},
  "BB-8950 fix ci":{"count":1},
  "BB-8950 fix olive issues":{"count":4},
  "BB-8950 fix show_correctness save bug":{"count":2},
  "BB-8950 investigate pickle issue":{"count":1},
  "BB-8950 investigate sync issue":{"count":3},
  "BB-8950 rebase PR":{"count":1},
  "BB-8950 respond":{"count":1},
  "BB-8950 send email to Mike and update task":{"count":1},
  "BB-8950 setup olive tutor":{"count":3},
  "BB-8950 setup repo locally":{"count":1},
  "BB-8950 start sandbox deployment":{"count":1},
  "BB-8950 support for olive (1h)":{"count":3},
  "BB-8950 test block in sandbox and post details in the ticket":{"count":1},
  "BB-8950 update PR":{"count":10},
  "BB-8950 work on block":{"count":53},
  "BB-8950 work on tests":{"count":10},
  "BB-8970 check":{"count":1},
  "BB-8970 check upstream":{"count":1},
  "BB-8970 create new PR and finalize changes":{"count":1},
  "BB-8970 discuss and create issues":{"count":1},
  "BB-8970 finalize and ping upstream":{"count":1},
  "BB-8970 merge PR and check new tasks":{"count":2},
  "BB-8970 read":{"count":1},
  "BB-8970 start working":{"count":1},
  "BB-8970 update details":{"count":1},
  "BB-8988 estimate":{"count":1},
  "BB-8991 estimate":{"count":1},
  "BB-8995 estimate":{"count":1},
  "BB-8996 estimate":{"count":1},
  "BB-8998 estimate":{"count":1},
  "BB-8998 review":{"count":8},
  "BB-9000 review":{"count":1},
  "BB-9001 estimate":{"count":1},
  "BB-9006 estimate":{"count":1},
  "BB-9008 estimate":{"count":1},
  "BB-9009 review":{"count":1},
  "BB-9011 estimate":{"count":1},
  "BB-9012 fix bug":{"count":2},
  "BB-9012 setup":{"count":1},
  "BB-9075 review":{"count":3},
  "BB-9081 respond":{"count":1},
  "BB-9215 check and respond":{"count":1},
  "BB-9306 update repo and respond":{"count":1},
  "BB-9408 review":{"count":2},
  "BB-9421 go through trial project and github profile":{"count":1},
  "BB-XXXX triage urgent email as FF":{"count":2},
  "Dummy":{"count":1},
  "FAL-175 catch up on updates":{"count":1},
  "FAL-175 catchup on forum posts":{"count":1},
  "FAL-175 catchup on updates":{"count":3},
  "FAL-175 complete checklist items":{"count":2},
  "FAL-175 post end of sprint update":{"count":5},
  "FAL-175 post end of sprint update and catchup of others updates":{"count":10},
  "FAL-175 post mid sprint update":{"count":5},
  "FAL-175 post mid sprint update and catch up":{"count":7},
  "FAL-3505 review":{"count":9},
  "FAL-3576 social chat":{"count":3},
  "FAL-3587 review":{"count":1},
  "FAL-3599 respond":{"count":1},
  "FAL-3599: CC: review":{"count":1},
  "FAL-3616 read and respond":{"count":2},
  "FAL-3616 review":{"count":1},
  "FAL-3697 investigate missing job error":{"count":1},
  "FAL-3749 Check ticket status":{"count":2},
  "FAL-3749 Check ticket status and update due date":{"count":1},
  "FAL-3749 check ticket status and post epic update":{"count":2},
  "FAL-3749 investigate revert to legacy url":{"count":3},
  "FAL-3749 post epic update":{"count":9},
  "FAL-3749 read":{"count":1},
  "FAL-3749 respond":{"count":1},
  "FAL-3749 respond on issue comments in ac testing":{"count":1},
  "FAL-3749 respond to issues in testing":{"count":1},
  "FAL-3749 respond to multiple issue comments and update tickets":{"count":1},
  "FAL-3749 review estimates (add 10mins)":{"count":1},
  "FAL-3749 test flicker PR and respond to epic related questions":{"count":1},
  "FAL-3749 test implemented tickets in sandbox, update them and post update in slack":{"count":1},
  "FAL-3749 update due date":{"count":1},
  "FAL-3749 update sandbox":{"count":2},
  "FAL-3749 update ticket status and due date":{"count":1},
  "FAL-3749 work on confirmation box for discard option":{"count":4},
  "FAL-3755 go through open tasks":{"count":1},
  "FAL-3755 review tutor plugin PR for meilisearch":{"count":1},
  "FAL-3765 check and respond on chat":{"count":1},
  "FAL-3778 read":{"count":1},
  "FAL-3781 review":{"count":6},
  "FAL-3782 investigate error with models":{"count":1},
  "FAL-3783 merge and release":{"count":1},
  "FAL-3783 review":{"count":2},
  "FAL-3786 Go through discovery and understand it":{"count":2},
  "FAL-3786 address feedback":{"count":2},
  "FAL-3786 check":{"count":1},
  "FAL-3786 find reviewer":{"count":1},
  "FAL-3786 investigate filters":{"count":1},
  "FAL-3786 read docs and investigate models":{"count":2},
  "FAL-3786 respond":{"count":1},
  "FAL-3786 work on feature":{"count":15},
  "FAL-3789 address review comments":{"count":3},
  "FAL-3789 check and respond":{"count":1},
  "FAL-3789 fix colors":{"count":1},
  "FAL-3789 rebase with upstream":{"count":1},
  "FAL-3789 setup and read":{"count":1},
  "FAL-3789 update sandbox and ping clients":{"count":1},
  "FAL-3789 work":{"count":18},
  "FAL-3790 check and respond":{"count":1},
  "FAL-3790 check response in issues":{"count":1},
  "FAL-3790 read related tickets":{"count":1},
  "FAL-3790 rebase, fix tests and address comments":{"count":1},
  "FAL-3790 refactor to use meilisearch for collection data":{"count":2},
  "FAL-3790 update sandbox":{"count":1},
  "FAL-3790 update sandbox and test":{"count":1},
  "FAL-3790 work":{"count":37},
  "FAL-3791 comment on PR":{"count":2},
  "FAL-3791 estimate":{"count":1},
  "FAL-3792 estimate":{"count":1},
  "FAL-3793 estimate":{"count":1},
  "FAL-3795 check and respond":{"count":1},
  "FAL-3797 debug sandbox issue":{"count":1},
  "FAL-3797 investigate sandbox issue":{"count":4},
  "FAL-3797 merge edx PR and create sandbox config":{"count":1},
  "FAL-3797 post slack msg before merge":{"count":2},
  "FAL-3797 read sandbox docs":{"count":1},
  "FAL-3797 respond to feedback and update PR":{"count":1},
  "FAL-3797 setup and start investigation":{"count":3},
  "FAL-3797 test queryset":{"count":2},
  "FAL-3797 update PRs based on acceptance criteria":{"count":1},
  "FAL-3797 update sandbox (split with FAL-3786)":{"count":3},
  "FAL-3797 update ticket and spillover reason":{"count":1},
  "FAL-3797 work on feedback":{"count":3},
  "FAL-3797 work on fix":{"count":7},
  "FAL-3799 read comments":{"count":1},
  "FAL-3799 read response (10m)":{"count":1},
  "FAL-3800 review":{"count":4},
  "FAL-3809 review":{"count":4},
  "FAL-3826 estimate":{"count":1},
  "FAL-3827 estimate":{"count":1},
  "FAL-3834 review":{"count":2},
  "FAL-3835 check forum posts and respond":{"count":1},
  "FAL-3835 fix recommender block template issues":{"count":2},
  "FAL-3835 investigate new mathjax releases":{"count":1},
  "FAL-3835 investigate recommender block production issue":{"count":2},
  "FAL-3835 maintainer work":{"count":7},
  "FAL-3835 recommender block maintainence":{"count":4},
  "FAL-3835 respond to comments in proposal":{"count":1},
  "FAL-3835 respond to mathjax queries":{"count":1},
  "FAL-3835 review redis event bus PR":{"count":1},
  "FAL-3835 update events doc":{"count":1},
  "FAL-3835 update events docs PR":{"count":1},
  "FAL-3835 vote proposals":{"count":1},
  "FAL-3837 check and respond":{"count":1},
  "FAL-3837 work":{"count":2},
  "FAL-3848 check":{"count":1},
  "FAL-3848 check and update tickets, split with FAL-3860":{"count":2},
  "FAL-3848 update deps":{"count":1},
  "FAL-3848 work":{"count":47},
  "FAL-3848 work (1h)":{"count":1},
  "FAL-3851 check":{"count":1},
  "FAL-3851 check and update ticket":{"count":1},
  "FAL-3851 complete post merge process":{"count":1},
  "FAL-3851 work":{"count":19},
  "FAL-3852 read":{"count":1},
  "FAL-3853 check":{"count":2},
  "FAL-3853 go through other proposals":{"count":1},
  "FAL-3853 post proposals in wiki":{"count":1},
  "FAL-3853 present proposal":{"count":1},
  "FAL-3853 read and create task":{"count":1},
  "FAL-3853 read docs and jot down some ideas":{"count":1},
  "FAL-3853 read forum replies":{"count":1},
  "FAL-3853 think and post on forum":{"count":1},
  "FAL-3853 work":{"count":1},
  "FAL-3853 work on proposal":{"count":4},
  "FAL-3858 review":{"count":1},
  "FAL-3860 update":{"count":1},
  "FAL-3860 work":{"count":7},
  "FAL-3867 estimate":{"count":1},
  "FAL-3869 estimate":{"count":1},
  "FAL-3871 Check new designs":{"count":2},
  "FAL-3871 check issues":{"count":1},
  "FAL-3871 check update":{"count":1},
  "FAL-3871 create tasks":{"count":1},
  "FAL-3871 go through designs, create tasks and update epic description":{"count":1},
  "FAL-3871 post epic update":{"count":6},
  "FAL-3871 post epic update and update tickets":{"count":1},
  "FAL-3871 read and check related epics":{"count":1},
  "FAL-3871 respond to design queries":{"count":1},
  "FAL-3873 check PR status":{"count":1},
  "FAL-3873 create sumac backport for hiding transcripts":{"count":1},
  "FAL-3873 fix editor opening issue on paste":{"count":1},
  "FAL-3873 hide transcripts section in video for libraries":{"count":2},
  "FAL-3873 investigate cancel modal":{"count":4},
  "FAL-3873 investigate cms assets issue":{"count":2},
  "FAL-3873 respond to PR comments":{"count":1},
  "FAL-3873 review PRs":{"count":2},
  "FAL-3873 update sandbox. split with FAL-3922":{"count":3},
  "FAL-3874 estimate":{"count":1},
  "FAL-3875 estimate":{"count":1},
  "FAL-3875 investigate":{"count":6},
  "FAL-3875 read":{"count":1},
  "FAL-3875 read and respond to comments":{"count":1},
  "FAL-3875 respond to comments and update discovery":{"count":8},
  "FAL-3875 review comments and share document":{"count":1},
  "FAL-3875 test indexing and filtering":{"count":5},
  "FAL-3875 update":{"count":2},
  "FAL-3875 update discovery and create related tasks":{"count":2},
  "FAL-3876 check":{"count":1},
  "FAL-3876 estimate":{"count":1},
  "FAL-3876 investigate and respond":{"count":1},
  "FAL-3876 read":{"count":1},
  "FAL-3876 review":{"count":4},
  "FAL-3876 work":{"count":6},
  "FAL-3877 check and respond":{"count":1},
  "FAL-3877 estimate":{"count":1},
  "FAL-3877 investigate":{"count":2},
  "FAL-3877 work":{"count":12},
  "FAL-3878 estimate":{"count":1},
  "FAL-3881 estimate":{"count":1},
  "FAL-3887 estimate":{"count":1},
  "FAL-3893 review":{"count":1},
  "FAL-3903 merge PRs":{"count":1},
  "FAL-3903 review":{"count":3},
  "FAL-3903 review and post message on slack for merge":{"count":1},
  "FAL-3903 review and schedule merge":{"count":1},
  "FAL-3914 respond":{"count":1},
  "FAL-3914 think about new title and post":{"count":1},
  "FAL-3914 think and post an idea":{"count":2},
  "FAL-3919 add tests":{"count":8},
  "FAL-3919 check PR and update ticket (add 10 mins)":{"count":1},
  "FAL-3919 check and update ticket":{"count":1},
  "FAL-3919 create backport PR":{"count":2},
  "FAL-3919 create ticket":{"count":1},
  "FAL-3919 respond to PR comments":{"count":1},
  "FAL-3919 respond to issue comments":{"count":1},
  "FAL-3919 work on unsaved blocker":{"count":4},
  "FAL-3922 check":{"count":1},
  "FAL-3922 check and update":{"count":1},
  "FAL-3922 create sumac backport PR":{"count":2},
  "FAL-3922 find task and create ticket":{"count":1},
  "FAL-3922 fix bug and tests":{"count":2},
  "FAL-3922 fix tests and finalize PR":{"count":3},
  "FAL-3922 investigate editor refresh bug":{"count":4},
  "FAL-3922 work":{"count":4},
  "FAL-3926 merge":{"count":1},
  "FAL-3926 review":{"count":1},
  "FAL-3926 schedule merge":{"count":1},
  "FAL-3927 merge":{"count":1},
  "FAL-3927 review":{"count":2},
  "FAL-3927 review and re-run failed jobs":{"count":1},
  "FAL-3931 review":{"count":1},
  "FAL-3933 check":{"count":3},
  "FAL-3933 check and respond":{"count":1},
  "FAL-3933 create ticket and link PR":{"count":1},
  "FAL-3933 fix tests and finalize PR":{"count":2},
  "FAL-3933 merge PRs and create backport PR":{"count":1},
  "FAL-3933 update backport and schedule merge":{"count":1},
  "FAL-3934 check and respond":{"count":1},
  "FAL-3934 check and schedule merge":{"count":1},
  "FAL-3934 investigate and fix issue":{"count":1},
  "FAL-3934 merge PR and update ticket":{"count":1},
  "FAL-3934 merge master and update backport":{"count":1},
  "FAL-3934 schedule merge":{"count":1},
  "FAL-3935 check":{"count":1},
  "FAL-3935 create sumac backport":{"count":1},
  "FAL-3935 investigate":{"count":1},
  "FAL-3935 update PR":{"count":2},
  "FAL-3935 work on fix":{"count":2},
  "FAL-3936 address review comments":{"count":2},
  "FAL-3936 check and update":{"count":1},
  "FAL-3936 rebase and resolve conflicts":{"count":1},
  "FAL-3936 update sandbox":{"count":2},
  "FAL-3936 work":{"count":15},
  "FAL-3943 check and comment on issue":{"count":1},
  "FAL-3943 investigate":{"count":1},
  "FAL-3943 investigate and respond":{"count":2},
  "FAL-3943 investigate modal display issues":{"count":2},
  "FAL-3943 work":{"count":21},
  "FAL-3944 create sumac backport":{"count":1},
  "FAL-3944 update ticket":{"count":1},
  "FAL-3944 work":{"count":1},
  "FAL-3951 chat with Irfan and collect info and post it.":{"count":1},
  "FAL-3951 create proposal doc and ping 2U to confirm numbers":{"count":1},
  "FAL-3951 ping Irfan":{"count":1},
  "FAL-3951 update proposal and ping 2U":{"count":1},
  "FAL-3951 update proposal and submit it.":{"count":1},
  "FAL-3959 investigate and create ticket":{"count":1},
  "FAL-3959 update PR":{"count":1},
  "FAL-3959 work":{"count":10},
  "FAL-3971 review":{"count":4},
  "FAL-3974 read":{"count":2},
  "FAL-3981 review":{"count":4},
  "FAL-3983 review":{"count":3},
  "FAL-3984 review":{"count":8},
  "FAL-3984 review (add 45mins)":{"count":1},
  "FAL-3986 check and update ticket":{"count":1},
  "FAL-3986 check sandbox":{"count":1},
  "FAL-3986 check sandbox and update ticket":{"count":1},
  "FAL-3986 work":{"count":10},
  "FAL-3990 check and respond":{"count":1},
  "FAL-3990 investigate":{"count":8},
  "FAL-3990 read":{"count":1},
  "FAL-3990 reindex content and fight with kubectl":{"count":1},
  "FAL-3990 respond to test queries":{"count":3},
  "FAL-3990 test sandbox and update ticket (split with FAL-4014)":{"count":1},
  "FAL-3990 update ticket":{"count":2},
  "FAL-3990 work":{"count":18},
  "FAL-3996 review":{"count":2},
  "FAL-4002 respond":{"count":4},
  "FAL-4002 update related docs and respond in ticket (split with FAL-4001)":{"count":1},
  "FAL-4002 update ticket":{"count":1},
  "FAL-4004 address review comment and squash fixup commits":{"count":1},
  "FAL-4004 check and ping for review on slack":{"count":1},
  "FAL-4004 post reminder":{"count":3},
  "FAL-4004 respond":{"count":2},
  "FAL-4004 update tickets":{"count":1},
  "FAL-4004 work":{"count":56},
  "FAL-4005 check":{"count":1},
  "FAL-4005 review":{"count":7},
  "FAL-4006 check":{"count":1},
  "FAL-4006 work":{"count":48},
  "FAL-4007 work":{"count":35},
  "FAL-4008 review":{"count":2},
  "FAL-4014 work":{"count":1},
  "FAL-4016 check and respond. create ticket for merged date.":{"count":1},
  "FAL-4016 investigate":{"count":3},
  "FAL-4016 work":{"count":13},
  "FAL-4020 fix test case and investigate org api":{"count":1},
  "FAL-4020 review":{"count":3},
  "FAL-4021 respond":{"count":1},
  "FAL-4021 work":{"count":8},
  "FAL-4026 check and respond":{"count":1},
  "FAL-4026 work":{"count":5},
  "FAL-4029 check and schedule merge":{"count":2},
  "FAL-4029 check merge issues":{"count":1},
  "FAL-4029 merge pr":{"count":1},
  "FAL-4029 read and respond":{"count":1},
  "FAL-4029 review":{"count":5},
  "FAL-4031 review":{"count":1},
  "FAL-4039 check and schedule merge":{"count":4},
  "FAL-4039 fix all warnings and errors":{"count":1},
  "FAL-4039 review and fix":{"count":1},
  "FAL-4079 check":{"count":1},
  "FAL-4079 investigate":{"count":1},
  "FAL-4079 investigate and fix issue":{"count":1},
  "FAL-4079 upgrade":{"count":1},
  "FAL-4087 check and update status":{"count":1},
  "FAL-4087 investigate":{"count":2},
  "FAL-4087 read and update task":{"count":1},
  "FAL-4087 work":{"count":1},
  "FAL-4091 review":{"count":1},
  "FAL-4092 investigate":{"count":1},
  "FAL-49 check sprint and respond":{"count":1},
  "FAL-49 read and respond to Falcon move post":{"count":1},
  "FAL-49 read sustainability report":{"count":1},
  "MNG-4444 read and vote":{"count":1},
  "MNG-4522 read":{"count":1},
  "MNG-4522 review":{"count":1},
  "SE-4988 FF: check alerts":{"count":2},
  "SE-4988 FF: investigating mail server blocked port and try to unblock it":{"count":3},
  "SE-6035 read":{"count":1},
  "SE-6225 complete course and form":{"count":1},
  "SE-6225 respond":{"count":1},
  "SE-6225 start reading and investigate encryption methods":{"count":1},
  "SE-6267 read post":{"count":1},
  "SE-6362 review":{"count":2},
  "SE-6401 review":{"count":3},
  "STAR-2249 check procedure to add new CC to listaflow":{"count":2},
  "STAR-3595 review":{"count":2},
  "STAR-3621 check and respond":{"count":1},
  "STAR-3631 read docs and volunteer":{"count":1},
  "STAR-3732 review":{"count":4},
  "STAR-3734 review":{"count":1},
  "STAR-3751 read":{"count":1},
  "STAR-3870 participate in meeting":{"count":1},
  "some sad":{"count":1}
}